…
``` r
boot_straps = 
  tibble(strap_number = 1:100) |> 
  mutate(
    strap_sample = map(strap_number, \(i) boot_sample(df = sim_df_nonconst))
  )

boot_straps |>
  pull(strap_sample) |>
  nth(2) |>
  arrange(x)
```

    ## # A tibble: 250 × 3
    ##         x  error       y
    ##     <dbl>  <dbl>   <dbl>
    ##  1 -1.29   1.40  -0.454 
    ##  2 -0.989 -1.97  -2.93  
    ##  3 -0.914 -0.908 -1.65  
    ##  4 -0.914 -0.908 -1.65  
    ##  5 -0.805  0.292 -0.123 
    ##  6 -0.805  0.292 -0.123 
    ##  7 -0.665 -0.544 -0.539 
    ##  8 -0.641 -0.416 -0.338 
    ##  9 -0.606 -0.106  0.0774
    ## 10 -0.606 -0.106  0.0774
    ## # ℹ 240 more rows
…
